Summarise Tables
…
guess_encoding(nyc$body)

## Warning: One or more parsing issues, see `problems()` for details

## # A tibble: 2 × 2
##   encoding     confidence
##   <chr>             <dbl>
## 1 UTF-8              1   
## 2 windows-1252       0.69

Our 1 confidence score on the UTF-8 encoding for the text column of our data frame gives us assurance that the following pre-processing methods should work without issues around character encoding. Let’s now inspect our data set in more detail.

nyc 

## # A tibble: 100,000 × 3
##      ...1 body                                                                                                                             score
##     <dbl> <chr>                                                                                                                            <dbl>
##  1  48839 "All of us in NYC are slowly transforming into rats. Master Splinter is our final form."                                             8
##  2 120046 "I didn’t make it. Lol"                                                                                                              2
##  3  31160 "COVID is the number one killer of police officers. Disgusting that you don’t want them to be safe."                                 0
##  4  71990 "We all know what's gonna happen in a week when he gets the medical bill"                                                            3
##  5 122888 "Are you talking to me or nbc?"                                                                                                      1
##  6  45499 "There are also activists pushing hard so that this doesn’t happen. See, we both can make broad, general statements that don’t …    -1
##  7  84526 "The Counter has become a solid lunch spot for me when I've met up with people who live in midtown, times square be damned."         2
##  8  63951 "Would there be enough residential parking stickers for every car that lives in the neighborhood? I doubt it honestly."             -1
##  9 112651 "I don’t see how the tenant and landlords interests align at all. The landlords interests is profit, not the product or service…     1
## 10 135967 "There were a lot of downed branches by Jackie Robinson Park, but overall pretty unscathed. I did run by the biggest curb puddl…     2
## # … with 99,990 more rows
…
