Chapter 2 Text Preprocessing | Natural Language Processing for the Social Sciences
…
Character encoding refers to numerical codes designed for programs to know how to display a text character. Particularly messy text sources such as website scrapes can lead to data sets that follow different types of character encoding schemes. This can create issues for reading in and manipulating text within a given program and/or method. Most English text data is used with either Unicode/UTF-8 or ASCII encoding, and we can check if our data set of r/nyc comments follows one of these encoding schemas after loading in our data.

guess_encoding(nyc$body)

## # A tibble: 2 × 2
##   encoding     confidence
##   <chr>             <dbl>
## 1 UTF-8              1   
## 2 windows-1252       0.68

Our 1 confidence score on the UTF-8 encoding for the text column of our data frame gives us assurance that the following preprocessing methods should work without issues around character encoding. Let’s now inspect our data set in more detail.

nyc 

## # A tibble: 100,000 × 5
##        id author               body                                                                                   score date  
##     <dbl> <chr>                <chr>                                                                                  <dbl> <chr> 
##  1   2666 chillwavexyx         "Not just my experience, unfortunately. Very hard to take them on their word after wh…     1 11/4/…
##  2  30225 MG7444               "Was Joe Biden disciplined? AOC? Any of the Democrats who are routinely photographed …   -10 10/21…
##  3  85724 robswins             "Imagine if cities actually used police like this. There are dozens of places I see w…    27 9/20/…
##  4  13927 nydutch              "No, it really, really is not. I don't see any hoookers pissing in the middle of 42nd…     1 10/30…
##  5 117584 kittygirl9891        "I'm so worried about my car. It's parked in a basement garage. 😭"                        7 9/2/21
##  6 100790 Darrkman             "Oh lord. \n\nI bet you're 30 yrs old at the oldest. \n\nDude I'm not gonna explain t…     1 9/10/…
##  7  69805 Solagnas             "You inferred wrong, idk what to tell you man. Its efficacy is what it is, it's not m…    -2 9/28/…
##  8 138396 TheNormalAlternative "Last I checked, this bridge was 30 miles north of NYC."                                  -6 8/20/…
##  9 125491 couchTomatoe         "Yes, I said that. Every corner."                                                          2 8/27/…
## 10  96017 twelvydubs           "Earlier in the year we already extended WFH to early 2022. Now it's been extended ev…    19 9/13/…
## # … with 99,990 more rows
…
